"id","name","model_id:id","group_id:id","perm_read","perm_write","perm_create","perm_unlink"
"acess_clinica_massagem_salas_group_user","sale.salas","model_sale_salas","sales_team.group_sale_salesman",1,1,1,0
"acess_clinica_massagem_salas_group_manager","sale.salas","model_sale_salas","sales_team.group_sale_manager",1,1,1,1
"acess_clinica_massagem_fila_group_user","sale.fila","model_sale_fila","sales_team.group_sale_salesman",1,0,0,0
"acess_clinica_massagem_fila_group_manager","sale.fila","model_sale_fila","sales_team.group_sale_manager",1,0,0,0
"acess_clinica_massagem_cortesia_group_user","sale.cortesia","model_sale_cortesia","sales_team.group_sale_salesman",1,1,1,0
"acess_clinica_massagem_cortesia_group_manager","sale.cortesia","model_sale_cortesia","sales_team.group_sale_manager",1,1,1,1
"acess_clinica_massagem_pacote_group_user","sale.pacote","model_sale_pacote","sales_team.group_sale_salesman",1,1,1,0
"acess_clinica_massagem_pacote_group_manager","sale.pacote","model_sale_pacote","sales_team.group_sale_manager",1,1,1,1
"acess_clinica_massagem_combo_group_user","sale.combo","model_sale_combo","sales_team.group_sale_salesman",1,1,1,0
"acess_clinica_massagem_combo_group_manager","sale.combo","model_sale_combo","sales_team.group_sale_manager",1,1,1,1
"acess_clinica_massagem_gestante_group_user","sale.gestante","model_sale_gestante","sales_team.group_sale_salesman",1,1,1,0
"acess_clinica_massagem_gestante_group_manager","sale.gestante","model_sale_gestante","sales_team.group_sale_manager",1,1,1,1
"acess_clinica_massagem_valevoucher_group_user","sale.valevoucher","model_sale_valevoucher","sales_team.group_sale_salesman",1,0,0,0
"acess_clinica_massagem_valevoucher_group_manager","sale.valevoucher","model_sale_valevoucher","sales_team.group_sale_manager",1,1,1,1
"acess_clinica_massagem_zerafila_group_user","sale.zerafila","model_sale_zerafila","sales_team.group_sale_salesman",1,1,1,1
"acess_clinica_massagem_zerafila_group_manager","sale.zerafila","model_sale_zerafila","sales_team.group_sale_manager",1,1,1,1
"access_clinica_massagem_atrasos_user","hr.attatrasos","model_hr_attatrasos","hr_attendance.group_hr_attendance_user",1,1,1,1
"acess_clinica_massagem_mudastatusv_group_user","sale.mudastatusv","model_sale_mudastatusv","sales_team.group_sale_salesman",1,1,1,0
"acess_clinica_massagem_mudastatusv_group_manager","sale.mudastatusv","model_sale_mudastatusv","sales_team.group_sale_manager",1,1,1,1
"acess_clinica_massagem_mudastatust_group_user","sale.mudastatust","model_sale_mudastatust","sales_team.group_sale_salesman",1,1,1,0
"acess_clinica_massagem_mudastatust_group_manager","sale.mudastatust","model_sale_mudastatust","sales_team.group_sale_manager",1,1,1,1